WA Sea Turtle Database WAStD API Wrapper • wastdr
…
turtle-nest-encounters

turte-nest-disturbance-observations

…or have a pickle

If you don’t have access to the WAStD API, you can still get a feel for the data by using the pickled example data:

library(wastdr)

data("wastd_data")
data("odkc_data")

wastd_data$animals
#> # A tibble: 1,000 x 46
#>    area_name area_type area_id site_name site_type site_id survey_id
#>    <chr>     <chr>       <int> <chr>     <chr>       <int>     <int>
#>  1 Barrow I… Locality       41 <NA>      <NA>           NA        NA
#>  2 Barrow I… Locality       41 <NA>      <NA>           NA        NA
#>  3 Mundabul… Site           42 <NA>      <NA>           NA        NA
#>  4 Mundabul… Site           42 <NA>      <NA>           NA        NA
#>  5 Mundabul… Site           42 <NA>      <NA>           NA        NA
#>  6 Barrow I… Locality       41 <NA>      <NA>           NA        NA
#>  7 Barrow I… Locality       41 <NA>      <NA>           NA        NA
#>  8 Barrow I… Locality       41 <NA>      <NA>           NA        NA
#>  9 Barrow I… Locality       41 <NA>      <NA>           NA        NA
#> 10 Mundabul… Site           42 <NA>      <NA>           NA        NA
#> # … with 990 more rows, and 39 more variables: survey_start_time <dttm>,
#> #   survey_end_time <dttm>, survey_start_comments <chr>,
#> #   survey_end_comments <chr>, datetime <dttm>, calendar_date_awst <chr>,
#> #   turtle_date <date>, season <dbl>, season_week <dbl>, iso_week <dbl>,
#> #   longitude <dbl>, latitude <dbl>, crs <chr>, location_accuracy <dbl>,
#> #   location_accuracy_m <dbl>, taxon <chr>, name <chr>, species <chr>,
#> #   health <chr>, sex <chr>, maturity <chr>, habitat <chr>, activity <chr>,
#> #   behaviour <chr>, comments <chr>, nesting_event <chr>,
#> #   checked_for_injuries <chr>, scanned_for_pit_tags <chr>,
#> #   checked_for_flipper_tags <chr>, cause_of_death <chr>,
#> #   cause_of_death_confidence <chr>, absolute_admin_url <chr>, obs <list>,
#> #   source <chr>, source_id <chr>, encounter_type <chr>, status <chr>,
#> #   observer <chr>, reporter <chr>
wastd_data$tracks
#> # A tibble: 1,000 x 56
#>    type      pk source source_id encounter_type status when  latitude longitude
#>    <chr>  <int> <chr>  <chr>     <chr>          <chr>  <chr>    <dbl>     <dbl>
#>  1 Feat… 159497 odk    uuid:836… nest           new    2010…    -20.3      119.
#>  2 Feat… 159498 odk    uuid:281… nest           new    2010…    -20.3      119.
#>  3 Feat… 159499 odk    uuid:19d… nest           new    2010…    -20.3      119.
#>  4 Feat…     80 paper  2015-10-… nest           proof… 2015…    -21.6      115.
#>  5 Feat…    314 odk    uuid:f23… nest           curat… 2016…    -32.1      116.
#>  6 Feat…    315 odk    uuid:c6f… nest           curat… 2016…    -32.1      116.
#>  7 Feat…    316 odk    uuid:ef5… nest           new    2016…    -32.0      116.
#>  8 Feat…    317 odk    uuid:a5c… nest           new    2016…    -32.0      116.
#>  9 Feat…    318 odk    uuid:c6e… nest           new    2016…    -32.0      116.
#> 10 Feat…    319 odk    uuid:829… nest           new    2016…    -32.0      116.
#> # … with 990 more rows, and 47 more variables: crs <chr>,
#> #   location_accuracy <chr>, leaflet_title <chr>, observer_pk <chr>,
#> #   observer_username <chr>, observer_name <chr>, reporter_pk <chr>,
#> #   reporter_username <chr>, reporter_name <chr>, comments <chr>,
#> #   area_pk <int>, area_area_type <chr>, area_name <chr>, site_pk <int>,
#> #   site_area_type <chr>, site_name <chr>, survey_id <int>,
#> #   survey_site_pk <int>, survey_site_area_type <chr>, survey_site_name <chr>,
#> #   survey_start_time <chr>, survey_end_time <chr>,
#> #   survey_start_comments <chr>, survey_reporter_pk <chr>,
…
