…
## …or have a pickle

If you don’t have access to the WAStD API, you can still get a feel for
the data by using the pickled example data:

``` r
library(wastdr)

data("wastd_data")
data("odkc_data")

wastd_data$animals
#> # A tibble: 1,000 x 46
#>    area_name       area_type area_id site_name site_type site_id survey_id
#>    <chr>           <chr>       <int> <chr>     <chr>       <int>     <int>
#>  1 Barrow Island   Locality       41 <NA>      <NA>           NA        NA
#>  2 Barrow Island   Locality       41 <NA>      <NA>           NA        NA
#>  3 Mundabullangana Site           42 <NA>      <NA>           NA        NA
#>  4 Mundabullangana Site           42 <NA>      <NA>           NA        NA
#>  5 Mundabullangana Site           42 <NA>      <NA>           NA        NA
#>  6 Barrow Island   Locality       41 <NA>      <NA>           NA        NA
#>  7 Barrow Island   Locality       41 <NA>      <NA>           NA        NA
#>  8 Barrow Island   Locality       41 <NA>      <NA>           NA        NA
#>  9 Barrow Island   Locality       41 <NA>      <NA>           NA        NA
#> 10 Mundabullangana Site           42 <NA>      <NA>           NA        NA
#> # … with 990 more rows, and 39 more variables: survey_start_time <dttm>,
#> #   survey_end_time <dttm>, survey_start_comments <chr>,
#> #   survey_end_comments <chr>, datetime <dttm>, calendar_date_awst <chr>,
#> #   turtle_date <date>, season <dbl>, season_week <dbl>, iso_week <dbl>,
#> #   longitude <dbl>, latitude <dbl>, crs <chr>, location_accuracy <dbl>,
#> #   location_accuracy_m <dbl>, taxon <chr>, name <chr>, species <chr>,
#> #   health <chr>, sex <chr>, maturity <chr>, habitat <chr>, activity <chr>,
#> #   behaviour <chr>, comments <chr>, nesting_event <chr>,
#> #   checked_for_injuries <chr>, scanned_for_pit_tags <chr>,
#> #   checked_for_flipper_tags <chr>, cause_of_death <chr>,
#> #   cause_of_death_confidence <chr>, absolute_admin_url <chr>, obs <list>,
#> #   source <chr>, source_id <chr>, encounter_type <chr>, status <chr>,
#> #   observer <chr>, reporter <chr>
wastd_data$tracks
#> # A tibble: 1,000 x 60
#>    type       pk source source_id encounter_type status when  latitude longitude
#>    <chr>   <int> <chr>  <chr>     <chr>          <chr>  <chr>    <dbl>     <dbl>
#>  1 Featu… 159497 odk    uuid:836… nest           new    2010…    -20.3      119.
#>  2 Featu… 159498 odk    uuid:281… nest           new    2010…    -20.3      119.
#>  3 Featu… 159499 odk    uuid:19d… nest           new    2010…    -20.3      119.
#>  4 Featu… 182644 odk    uuid:c92… nest           new    2010…    -20.3      119.
#>  5 Featu… 182643 odk    uuid:557… nest           new    2010…    -20.3      119.
#>  6 Featu… 182642 odk    uuid:e0c… nest           new    2010…    -20.3      119.
#>  7 Featu… 182641 odk    uuid:566… nest           new    2010…    -20.3      119.
#>  8 Featu… 182640 odk    uuid:19b… nest           new    2010…    -20.3      119.
#>  9 Featu… 182639 odk    uuid:89f… nest           new    2010…    -20.3      119.
#> 10 Featu… 182638 odk    uuid:afe… nest           new    2010…    -20.3      119.
#> # … with 990 more rows, and 51 more variables: crs <chr>,
#> #   location_accuracy <chr>, leaflet_title <chr>, observer_pk <chr>,
#> #   observer_username <chr>, observer_name <chr>, reporter_pk <chr>,
#> #   reporter_username <chr>, reporter_name <chr>, comments <chr>,
#> #   area_pk <int>, area_area_type <chr>, area_name <chr>, site_pk <int>,
#> #   site_area_type <chr>, site_name <chr>, survey_id <int>,
#> #   survey_start_time <chr>, survey_end_time <chr>,
#> #   survey_start_comments <chr>, survey_reporter_pk <chr>,
#> #   survey_reporter_username <chr>, survey_reporter_name <chr>,
…
