Summarize HS and ES for excavations of hatched nests grouped by `area_name` — hatching_emergence_success_area • wastdr
…
    Examples

data("wastd_data")
hatching_emergence_success_area(wastd_data$nest_excavations)

#> # A tibble: 22 x 17
#> # Groups:   encounter_area_name, season [21]
#>    encounter_area_… season species count clutch_size_fre… clutch_size_mean
#>    <chr>             <dbl> <chr>   <int>            <dbl>            <dbl>
#>  1 Cable Beach Bro…   2017 NA          1               NA               NA
#>  2 Cable Beach Bro…   2018 NA          2               NA               NA
#>  3 Cable Beach Bro…   2019 NA         38               NA               NA
#>  4 Delambre Island    2017 NA        118               NA               NA
#>  5 Delambre Island    2018 NA         54               NA               NA
#>  6 Delambre Island    2019 NA         76               NA               NA
#>  7 Ningaloo           2019 NA        278               NA               NA
#>  8 Onslow             2016 NA          1               NA               NA
#>  9 Perth Metro        2016 NA          2               NA               NA
#> 10 Perth Metro        2017 NA          2               NA               NA
#> # … with 12 more rows, and 11 more variables: clutch_size_sd <dbl>,
#> #   clutch_size_min <int>, clutch_size_max <int>, hatching_success_mean <dbl>,
#> #   hatching_success_sd <dbl>, hatching_success_min <dbl>,
#> #   hatching_success_max <dbl>, emergence_success_mean <dbl>,
#> #   emergence_success_sd <dbl>, emergence_success_min <dbl>,
#> #   emergence_success_max <dbl>
…
