Tally ODKC Nest disturbances by season, cause, and encounter type — nest_disturbance_by_season_odkc • wastdr
…
    Examples

data("odkc_data")
odkc_data$tracks_dist %.html'>%>% nest_disturbance_by_season_odkc()
#> # A tibble: 21 × 4
#>    season disturbance_cause     n encounter_type
#>     <dbl> <chr>             <int> <chr>         
#>  1   2021 unknown               9 nest          
#>  2   2021 crab                  5 nest          
#>  3   2021 bird                  4 nest          
#>  4   2021 turtle                4 nest          
#>  5   2021 dog                   3 nest          
#>  6   2021 human                 3 nest          
#>  7   2021 croc                  1 nest          
#>  8   2021 other                 1 nest          
#>  9   2021 tide                  1 nest          
#> 10   2020 crab                 16 nest          
#> # … with 11 more rows
…
