Calculate processing success for emergences per site, season, species — total_emergences_per_site_season_species • wastdr
…
    Examples

data(wastd_data)
wastd_data %>% total_emergences_per_site_season_species()
#> # A tibble: 55 × 10
#>    area_n…¹ site_…² season species emerg…³ proce…⁴ missed proce…⁵ tagged non_t…⁶
#>    <chr>    <chr>    <dbl> <chr>     <int>   <int>  <int>   <dbl>  <int>   <int>
#>  1 Perth M… Kensin…   2016 Carett…       0       0      0     NaN      0       0
#>  2 Perth M… Kensin…   2016 Chelon…       0       0      0     NaN      0       0
#>  3 Perth M… Kensin…   2016 Chelon…     110       0    110       0      0       0
#>  4 Perth M… Kensin…   2016 Eretmo…       0       0      0     NaN      0       0
#>  5 Perth M… Kensin…   2016 Lepido…       0       0      0     NaN      0       0
#>  6 Perth M… Kensin…   2016 Natato…      71       0     71       0      0       0
#>  7 Perth M… Kensin…   2017 Carett…       0       0      0     NaN      0       0
#>  8 Delambr… Delamb…   2017 Chelon…      11       0     11       0      0       0
#>  9 Perth M… Kensin…   2017 Chelon…     156       0    156       0      0       0
#> 10 Delambr… Delamb…   2017 Chelon…      21       0     21       0      0       0
#> # … with 45 more rows, and abbreviated variable names ¹​area_name, ²​site_name,
#> #   ³​emergences, ⁴​processed, ⁵​processed_pct, ⁶​non_tagged
…
