Data analysis - Producing insight from WAStD • wastdr
…
#>  6   2017          17       43 natato…             1              0     0
#>  7   2017          20       46 chelon…             0              0     0
#>  8   2017          20       46 natato…             1              0     0
#>  9   2017          22       48 natato…            40              0     0
#> 10   2017          23       49 chelon…             2              0     0
#> 11   2017          23       49 chelon…             9              0     0
#> 12   2017          23       49 natato…           152              0     0
#> 13   2017          28        2 chelon…             0              1     0
#> 14   2017          32        6 coroll…             1              0     0
#> 15   2017          32        6 natato…             1              0     0
#> 16   2017          44       18 eretmo…             1              0     0
#> # … with 3 more variables: `successful-crawl` <dbl>,
#> #   `track-not-assessed` <dbl>, `track-unsure` <dbl>
tracks %>% nesting_type_by_season_day_species()
#> # A tibble: 36 x 5
#>    season turtle_date species           nest_type              n
#>     <dbl> <date>      <chr>             <chr>              <int>
#>  1   2017 2017-08-30  natator-depressus false-crawl            1
#>  2   2017 2017-10-13  corolla-corolla   track-not-assessed     2
#>  3   2017 2017-10-18  cheloniidae-fam   false-crawl            1
#>  4   2017 2017-10-18  cheloniidae-fam   nest                   1
#>  5   2017 2017-10-18  natator-depressus false-crawl            1
#>  6   2017 2017-10-25  corolla-corolla   false-crawl            1
#>  7   2017 2017-10-26  chelonia-mydas    successful-crawl       1
#>  8   2017 2017-10-26  natator-depressus false-crawl            1
#>  9   2017 2017-10-27  natator-depressus track-not-assessed     1
#> 10   2017 2017-11-18  chelonia-mydas    successful-crawl       1
#> # … with 26 more rows

# Track success by day and species
tracks %>% track_success()
#> # A tibble: 24 x 6
#>    season turtle_date species             all successful track_success
#>     <dbl> <date>      <chr>             <int>      <dbl>         <dbl>
#>  1   2017 2017-08-30  natator-depressus     1          0             0
#>  2   2017 2017-10-13  corolla-corolla       2          0             0
#>  3   2017 2017-10-18  cheloniidae-fam       1          0             0
#>  4   2017 2017-10-18  natator-depressus     1          0             0
#>  5   2017 2017-10-25  corolla-corolla       1          0             0
#>  6   2017 2017-10-26  chelonia-mydas        1          1           100
#>  7   2017 2017-10-26  natator-depressus     1          0             0
#>  8   2017 2017-10-27  natator-depressus     1          0             0
#>  9   2017 2017-11-18  chelonia-mydas        2          1            50
#> 10   2017 2017-11-18  cheloniidae-fam       1          0             0
#> # … with 14 more rows
…
Tagged nests

nests %>% map_nests()

Disturbed nests

tracks %>% dplyr::filter(disturbance == "present") %>% add_nest_labels() %>% map_tracks()

tracks %>% dplyr::filter(disturbance == "present") %>% add_nest_labels() %>% map_tracks(cluster=T)

Disturbances and predation

disturbance %>% disturbance_by_season()
#> # A tibble: 45 x 3
#> # Groups:   season [3]
#>    season disturbance_cause     n
#>     <dbl> <chr>             <int>
#>  1   2018 goanna              173
#>  2   2018 vehicle             125
#>  3   2018 dingo                89
#>  4   2018 unknown              68
#>  5   2018 dog                  60
#>  6   2018 cat                  56
#>  7   2018 human                37
#>  8   2018 fox                  35
#>  9   2018 other                25
#> 10   2018 turtle               21
#> # … with 35 more rows
disturbance %>% map_dist()

disturbance %>% map_dist(cluster=T)

Surveys

surveys %>% survey_count()
#> [1] 32
surveys %>% surveys_per_site_name_and_date()
#> # A tibble: 31 x 4
#>    season turtle_date site_name                                           n
#>     <dbl> <date>      <chr>                                           <int>
#>  1   2016 2016-11-14  Florian Mayer testing area                          1
#>  2   2016 2016-11-15  Kensington DBCA Office and Training Site            1
#>  3   2016 2016-11-17  Florian Mayer testing area                          1
#>  4   2016 2016-11-18  Thevenard Island Accommodation and Training Ar…     1
#>  5   2016 2016-11-18  Thevenard Island South Beach                        1
#>  6   2016 2016-11-23  Florian Mayer testing area                          1
#>  7   2016 2016-11-23  Kensington DBCA Office and Training Site            1
#>  8   2016 2017-01-14  Cable Beach Broome Sector 2                         1
#>  9   2016 2017-01-25  Cable Beach Broome Sector 2                         1
#> 10   2016 2017-01-31  Kensington DBCA Office and Training Site            1
#> # … with 21 more rows
surveys %>% survey_hours_per_site_name_and_date()
#> # A tibble: 31 x 4
#>    season turtle_date site_name                              hours_surveyed
#>     <dbl> <date>      <chr>                                           <dbl>
#>  1   2016 2016-11-14  Florian Mayer testing area                          3
#>  2   2016 2016-11-15  Kensington DBCA Office and Training S…              2
#>  3   2016 2016-11-17  Florian Mayer testing area                          2
#>  4   2016 2016-11-18  Thevenard Island Accommodation and Tr…              1
#>  5   2016 2016-11-18  Thevenard Island South Beach                        3
#>  6   2016 2016-11-23  Florian Mayer testing area                         11
#>  7   2016 2016-11-23  Kensington DBCA Office and Training S…              4
#>  8   2016 2017-01-14  Cable Beach Broome Sector 2                         1
#>  9   2016 2017-01-25  Cable Beach Broome Sector 2                         1
#> 10   2016 2017-01-31  Kensington DBCA Office and Training S…              1
#> # … with 21 more rows
…
